{
    "continent": {
        "id" : "EUROPE",
        "name" : "Europe"
    },
    "countries" : [
                   {
                   "id" : "GERMANY",
                   "name" : "Germany",
                   "Capital": "Berlin",
                   "Population" : 82900000
                   },
                   {
                   "id" : "FRANCE",
                   "name" : "France",
                   "Capital": "Paris",
                   "Population" : 66991000
                   },
                   {
                   "id" : "ITALY",
                   "name" : "Italy",
                   "Capital": "Rome",
                   "Population" : 60589445
                   },
                   {
                   "id" : "SPAIN",
                   "name" : "Spain",
                   "Capital": "Madrid",
                   "Population" : 46423064
                   },
                   {
                   "id" : "UK",
                   "name" : "United Kingdom",
                   "Capital": "London",
                   "Population" : 65110276
                   }
                   ]
}
